…
arrange(mechanic2, desc(mechanic2$average_rating))

## # A tibble: 100 x 2
##                               val average_rating
##                             <chr>          <dbl>
##  1           Variable Phase Order       8.087800
##  2               Chit-Pull System       7.511384
##  3  Action Point Allowance System       7.503613
##  4  Campaign / Battle Card Driven       7.472923
##  5              Co-operative Play       7.391560
##  6               Chit-Pull System       7.390029
##  7                     Simulation       7.349657
##  8                Hex-and-Counter       7.349154
##  9           Deck / Pool Building       7.300338
## 10                   Storytelling       7.293276
## # ... with 90 more rows
…
arrange(designer2, desc(designer2$average_rating))

## # A tibble: 3,150 x 2
##                val average_rating
##              <chr>          <dbl>
##  1      Adam Poots        8.89899
##  2     Marc Ripoll        8.82781
##  3     Tim Flowers        8.71368
##  4   Craig Bartell        8.71368
##  5   Terry Doherty        8.60654
##  6      Tim Pinder        8.60267
##  7  Roland LeBlanc        8.59789
##  8   Mathew Hinkle        8.59714
##  9   Robert Butler        8.47239
## 10   Chris Withers        8.46923
## # ... with 3,140 more rows
